{
    "docs": [
        {
            "_id": "67414392bfa9f1f733382f88",
            "code": "DH.CN3.8720",
            "user": {
                "_id": "66dcf04589417f36f3d8eb26",
                "email": "cn3@heoquayngochai.com",
                "ext": "3333",
                "name": "Chi Nhánh 3",
                "id": "66dcf04589417f36f3d8eb26"
            },
            "users": [],
            "warehouse": {
                "_id": "66c5a6f8e0cc377dd3a88fdf",
                "code": "CN3",
                "name": "Chi Nhánh 3",
                "id": "66c5a6f8e0cc377dd3a88fdf"
            },
            "tables": [],
            "customer": null,
            "customerName": "",
            "customerPhone": null,
            "customerEmail": null,
            "customerCity": null,
            "customerDistrict": null,
            "customerWard": null,
            "customerAddress": null,
            "customFields": [],
            "products": [
                {
                    "code": "M1732330384125",
                    "parent": null,
                    "product": "66dbb7332a08eb92925511b3",
                    "sku": "BM",
                    "name": "Bánh Mi Không",
                    "price": 5000,
                    "quantity": 1,
                    "missingQuantity": 0,
                    "discount": 0,
                    "desc": "",
                    "unit": "Cái",
                    "pointsEarned": 0,
                    "autoPriceEnabled": false,
                    "_id": "67414392bfa9f1f733382f8e"
                },
                {
                    "code": "C1732330384525",
                    "parent": null,
                    "product": "66dbb7332a08eb92925511b3",
                    "sku": "BM",
                    "name": "Bánh Mi Không",
                    "price": 5000,
                    "quantity": 1,
                    "missingQuantity": 0,
                    "discount": 0,
                    "desc": "",
                    "unit": "Cái",
                    "pointsEarned": 0,
                    "autoPriceEnabled": false,
                    "_id": "67414392bfa9f1f733382f8f"
                }
            ],
            "carrierCode": null,
            "shipFee": null,
            "customerShipFee": 0,
            "returnFee": null,
            "overWeightShipFee": 0,
            "discountAmount": 0,
            "depositAmount": 0,
            "transferAmount": 10000,
            "totalAmount": 10000,
            "receivedAmount": 10000,
            "deliveryTime": 1732318134259,
            "shippingEnabled": false,
            "shippingName": "",
            "shippingPhone": "",
            "shippingAddress": null,
            "shippingProvince": "",
            "shippingDistrict": null,
            "shippingWard": null,
            "delTime": 0,
            "desc": null,
            "note": null,
            "couponCode": null,
            "status": "success",
            "source": null,
            "ref": null,
            "tags": [
                "mang-ve"
            ],
            "lastNumber": 8720,
            "confirmTime": 0,
            "finishTime": 0,
            "cancelTime": 0,
            "printCount": 0,
            "isPayment": true,
            "isPOS": true,
            "isPaymentPoint": false,
            "paymentPoints": 0,
            "pointAmount": 0,
            "startTime": 0,
            "endTime": 0,
            "expireTime": 1734910134259,
            "createTime": 1732330386155,
            "updateTime": 1732330386443,
            "client": "65de806fc505dcc2042224fb",
            "carrier": null,
            "createdBy": {
                "_id": "66dcf04589417f36f3d8eb26",
                "email": "cn3@heoquayngochai.com",
                "ext": "3333",
                "name": "Chi Nhánh 3",
                "id": "66dcf04589417f36f3d8eb26"
            },
            "__v": 0,
            "populateShippingProvince": null,
            "populateShippingDistrict": null,
            "populateShippingWard": null,
            "expenses": [
                {
                    "_id": "67414392bfa9f1f733382f99",
                    "apply": "order",
                    "tags": [],
                    "desc": "Tạo phiếu thu chi, cập nhật trạng thái thanh toán",
                    "paymentType": "cash",
                    "paymentTime": 1732318134259,
                    "printCount": 0,
                    "createTime": 1732330386223,
                    "updateTime": 1732330386223,
                    "files": [],
                    "type": "receipt",
                    "client": "65de806fc505dcc2042224fb",
                    "warehouse": "66c5a6f8e0cc377dd3a88fdf",
                    "customer": null,
                    "bankAccount": null,
                    "ref": null,
                    "amount": 10000,
                    "user": "66dcf04589417f36f3d8eb26",
                    "createdBy": "66dcf04589417f36f3d8eb26",
                    "order": "67414392bfa9f1f733382f88",
                    "codeNumber": 9271,
                    "code": "PT-9271",
                    "__v": 0
                }
            ],
            "debts": [],
            "shippingOrders": [],
            "id": "67414392bfa9f1f733382f88"
        }
    ],
    "totalDocs": 8626,
    "limit": 1,
    "totalPages": 8626,
    "page": 1,
    "pagingCounter": 1,
    "hasPrevPage": false,
    "hasNextPage": true,
    "prevPage": null,
    "nextPage": 2
}
